1. B
1. B
1. B
1. B
2. A
2. A
2. A
2. A
3. D
3. D
3. D
3. D
4. B
4. B
4. B
4. B
5. C
5. C
5. C
5. C
6. B
6. B
6. B
6. B
7. A
7. A
7. A
7. A
8. B
8. B
8. B
8. B
9. B
9. B
9. B
9. B
10. C
10. C
10. C
10. C
11. D
11. D
11. D
11. D
12. B
12. B
12. B
12. B
13. D
13. D
13. D
13. D
14. B
14. B
14. B
14. B
15. B
15. B
15. B
15. B
16. D
16. D
16. D
16. D
17. C
17. C
17. C
17. C
18. A
18. A
18. A
18. A
19. B
19. B
19. B
19. B
20. D
20. D
20. D
20. D
21. B
21. B
21. B
21. B
22. C
22. C
22. C
22. C
23. D
23. D
23. D
23. D
24. C
24. C
24. C
24. C
25. B
25. B
25. B
25. B
26. D
26. D
26. D
26. D
27. C
27. C
27. C
27. C
28. A
28. A
28. A
28. A
29. C
29. C
29. C
29. C
30. A
30. A
30. A
30. A
31. D
31. D
31. D
31. D
32. D
32. D
32. D
32. D
33. C
33. C
33. C
33. C
34. C
34. C
34. C
34. C
35. C
35. C
35. C
35. C
36. D
36. D
36. D
36. D
37. D
37. D
37. D
37. D
38. C
38. C
38. C
38. C
39. D
39. D
39. D
39. D
40. C
40. C
40. C
40. C
41. A
41. A
41. A
41. A
42. B
42. B
42. B
42. B
43. A
43. A
43. A
43. A
44. A
44. A
44. A
44. A
45. B
45. B
45. B
45. B
46. B
46. B
46. B
46. B
47. C
47. C
47. C
47. C
48. D
48. D
48. D
48. D
49. A
49. A
49. A
49. A
50. D
50. D
50. D
50. D
