1. A
1. A
1. A
1. A
2. D
2. D
2. D
2. D
3. C
3. C
3. C
3. C
4. A
4. A
4. A
4. A
5. D
5. D
5. D
5. D
6. C
6. C
6. C
6. C
7. B
7. B
7. B
7. B
8. B
8. B
8. B
8. B
9. B
9. B
9. B
9. B
10. D
10. D
10. D
10. D
11. B
11. B
11. B
11. B
12. D
12. D
12. D
12. D
13. A
13. A
13. A
13. A
14. D
14. D
14. D
14. D
15. A
15. A
15. A
15. A
16. B
16. B
16. B
16. B
17. D
17. D
17. D
17. D
18. C
18. C
18. C
18. C
19. B
19. B
19. B
19. B
20. B
20. B
20. B
20. B
21. D
21. D
21. D
21. D
22. B
22. B
22. B
22. B
23. A
23. A
23. A
23. A
24. C
24. C
24. C
24. C
25. C
25. C
25. C
25. C
26. D
26. D
26. D
26. D
27. A
27. A
27. A
27. A
28. D
28. D
28. D
28. D
29. D
29. D
29. D
29. D
30. D
30. D
30. D
30. D
31. C
31. C
31. C
31. C
32. D
32. D
32. D
32. D
33. D
33. D
33. D
33. D
34. C
34. C
34. C
34. C
35. A
35. A
35. A
35. A
36. B
36. B
36. B
36. B
37. A
37. A
37. A
37. A
38. C
38. C
38. C
38. C
39. A
39. A
39. A
39. A
40. C
40. C
40. C
40. C
41. D
41. D
41. D
41. D
42. C
42. C
42. C
42. C
43. A
43. A
43. A
43. A
44. C
44. C
44. C
44. C
45. A
45. A
45. A
45. A
46. B
46. B
46. B
46. B
47. D
47. D
47. D
47. D
48. B
48. B
48. B
48. B
49. D
49. D
49. D
49. D
50. B
50. B
50. B
50. B
