1. A
1. A
1. A
1. A
2. A
2. A
2. A
2. A
3. A
3. A
3. A
3. A
4. B
4. B
4. B
4. B
5. D
5. D
5. D
5. D
6. C
6. C
6. C
6. C
7. D
7. D
7. D
7. D
8. A
8. A
8. A
8. A
9. D
9. D
9. D
9. D
10. B
10. B
10. B
10. B
11. C
11. C
11. C
11. C
12. A
12. A
12. A
12. A
13. B
13. B
13. B
13. B
14. D
14. D
14. D
14. D
15. A
15. A
15. A
15. A
16. D
16. D
16. D
16. D
17. B
17. B
17. B
17. B
18. D
18. D
18. D
18. D
19. C
19. C
19. C
19. C
20. B
20. B
20. B
20. B
21. D
21. D
21. D
21. D
22. A
22. A
22. A
22. A
23. A
23. A
23. A
23. A
24. C
24. C
24. C
24. C
25. C
25. C
25. C
25. C
26. B
26. B
26. B
26. B
27. D
27. D
27. D
27. D
28. C
28. C
28. C
28. C
29. B
29. B
29. B
29. B
30. B
30. B
30. B
30. B
31. D
31. D
31. D
31. D
32. C
32. C
32. C
32. C
33. C
33. C
33. C
33. C
34. B
34. B
34. B
34. B
35. D
35. D
35. D
35. D
36. A
36. A
36. A
36. A
37. D
37. D
37. D
37. D
38. B
38. B
38. B
38. B
39. D
39. D
39. D
39. D
40. B
40. B
40. B
40. B
41. C
41. C
41. C
41. C
42. D
42. D
42. D
42. D
43. A
43. A
43. A
43. A
44. A
44. A
44. A
44. A
45. C
45. C
45. C
45. C
46. A
46. A
46. A
46. A
47. D
47. D
47. D
47. D
48. B
48. B
48. B
48. B
49. A
49. A
49. A
49. A
50. D
50. D
50. D
50. D
