1. D
1. D
1. D
1. D
2. A
2. A
2. A
2. A
3. B
3. B
3. B
3. B
4. C
4. C
4. C
4. C
5. A
5. A
5. A
5. A
6. D
6. D
6. D
6. D
7. C
7. C
7. C
7. C
8. A
8. A
8. A
8. A
9. D
9. D
9. D
9. D
10. B
10. B
10. B
10. B
11. A
11. A
11. A
11. A
12. B
12. B
12. B
12. B
13. C
13. C
13. C
13. C
14. D
14. D
14. D
14. D
15. A
15. A
15. A
15. A
16. B
16. B
16. B
16. B
17. B
17. B
17. B
17. B
18. D
18. D
18. D
18. D
19. D
19. D
19. D
19. D
20. A
20. A
20. A
20. A
21. B
21. B
21. B
21. B
22. D
22. D
22. D
22. D
23. D
23. D
23. D
23. D
24. B
24. B
24. B
24. B
25. C
25. C
25. C
25. C
26. D
26. D
26. D
26. D
27. A
27. A
27. A
27. A
28. D
28. D
28. D
28. D
29. B
29. B
29. B
29. B
30. A
30. A
30. A
30. A
31. D
31. D
31. D
31. D
32. A
32. A
32. A
32. A
33. B
33. B
33. B
33. B
34. C
34. C
34. C
34. C
35. C
35. C
35. C
35. C
36. B
36. B
36. B
36. B
37. D
37. D
37. D
37. D
38. A
38. A
38. A
38. A
39. A
39. A
39. A
39. A
40. B
40. B
40. B
40. B
41. A
41. A
41. A
41. A
42. C
42. C
42. C
42. C
43. A
43. A
43. A
43. A
44. D
44. D
44. D
44. D
45. A
45. A
45. A
45. A
46. D
46. D
46. D
46. D
47. D
47. D
47. D
47. D
48. A
48. A
48. A
48. A
49. A
49. A
49. A
49. A
50. D
50. D
50. D
50. D
