1. D
1. D
1. D
1. D
2. A
2. A
2. A
2. A
3. C
3. C
3. C
3. C
4. C
4. C
4. C
4. C
5. B
5. B
5. B
5. B
6. D
6. D
6. D
6. D
7. D
7. D
7. D
7. D
8. C
8. C
8. C
8. C
9. B
9. B
9. B
9. B
10. C
10. C
10. C
10. C
11. B
11. B
11. B
11. B
12. D
12. D
12. D
12. D
13. B
13. B
13. B
13. B
14. B
14. B
14. B
14. B
15. D
15. D
15. D
15. D
16. B
16. B
16. B
16. B
17. D
17. D
17. D
17. D
18. C
18. C
18. C
18. C
19. C
19. C
19. C
19. C
20. D
20. D
20. D
20. D
21. A
21. A
21. A
21. A
22. C
22. C
22. C
22. C
23. C
23. C
23. C
23. C
24. C
24. C
24. C
24. C
25. A
25. A
25. A
25. A
26. B
26. B
26. B
26. B
27. D
27. D
27. D
27. D
28. D
28. D
28. D
28. D
29. B
29. B
29. B
29. B
30. D
30. D
30. D
30. D
31. A
31. A
31. A
31. A
32. C
32. C
32. C
32. C
33. C
33. C
33. C
33. C
34. D
34. D
34. D
34. D
35. B
35. B
35. B
35. B
36. C
36. C
36. C
36. C
37. B
37. B
37. B
37. B
38. B
38. B
38. B
38. B
39. C
39. C
39. C
39. C
40. A
40. A
40. A
40. A
41. D
41. D
41. D
41. D
42. D
42. D
42. D
42. D
43. D
43. D
43. D
43. D
44. A
44. A
44. A
44. A
45. B
45. B
45. B
45. B
46. D
46. D
46. D
46. D
47. B
47. B
47. B
47. B
48. D
48. D
48. D
48. D
49. C
49. C
49. C
49. C
50. D
50. D
50. D
50. D
